…
df_data <-
  df_q4 %>%
  select(
    date,
    county,
    state,
    fips,
    cases,
    deaths,
    population = `Estimate!!Total`
  )
df_data
```

    ## # A tibble: 389,202 x 7
    ##    date       county      state      fips  cases deaths population
    ##    <date>     <chr>       <chr>      <chr> <dbl>  <dbl>      <dbl>
    ##  1 2020-01-21 Snohomish   Washington 53061     1      0     786620
    ##  2 2020-01-22 Snohomish   Washington 53061     1      0     786620
    ##  3 2020-01-23 Snohomish   Washington 53061     1      0     786620
    ##  4 2020-01-24 Cook        Illinois   17031     1      0    5223719
    ##  5 2020-01-24 Snohomish   Washington 53061     1      0     786620
    ##  6 2020-01-25 Orange      California 06059     1      0    3164182
    ##  7 2020-01-25 Cook        Illinois   17031     1      0    5223719
    ##  8 2020-01-25 Snohomish   Washington 53061     1      0     786620
    ##  9 2020-01-26 Maricopa    Arizona    04013     1      0    4253913
    ## 10 2020-01-26 Los Angeles California 06037     1      0   10098052
    ## # … with 389,192 more rows
…
``` r
## TASK: Find the top 10 max cases_perk counties; report populations as well
q7_cases_perk <- df_normalized %>%
  filter(date == "2020-07-30") %>%
  arrange(desc(cases_perk))
## TASK: Find the top 10 deaths_perk counties; report populations as well
q7_deaths_perk <- df_normalized %>%
  filter(date == "2020-07-30") %>%
  arrange(desc(deaths_perk))
q7_cases_perk
```

    ## # A tibble: 3,218 x 10
    ##    date       county state fips  cases deaths population cases_perk deaths_perk
    ##    <date>     <chr>  <chr> <chr> <dbl>  <dbl>      <dbl>      <dbl>       <dbl>
    ##  1 2020-07-30 Trous… Tenn… 47169  1567      6       9573     16369.        627.
    ##  2 2020-07-30 Lake   Tenn… 47095   726      0       7526      9647.          0 
    ##  3 2020-07-30 Lee    Arka… 05077   879      6       9398      9353.        638.
    ##  4 2020-07-30 Dakota Nebr… 31043  1896     42      20317      9332.       2067.
    ##  5 2020-07-30 Buena… Iowa  19021  1782     12      20260      8796.        592.
    ##  6 2020-07-30 Linco… Arka… 05079  1161     11      13695      8478.        803.
    ##  7 2020-07-30 Nobles Minn… 27105  1737      6      21839      7954.        275.
    ##  8 2020-07-30 Brist… Alas… 02060    63      0        890      7079.          0 
    ##  9 2020-07-30 East … Loui… 22035   492      1       7225      6810.        138.
    ## 10 2020-07-30 Colfax Nebr… 31037   692      4      10760      6431.        372.
    ## # … with 3,208 more rows, and 1 more variable: county_state <chr>

``` r
q7_deaths_perk
```

    ## # A tibble: 3,218 x 10
    ##    date       county state fips  cases deaths population cases_perk deaths_perk
    ##    <date>     <chr>  <chr> <chr> <dbl>  <dbl>      <dbl>      <dbl>       <dbl>
    ##  1 2020-07-30 Hanco… Geor… 13141   280     34       8535      3281.       3984.
    ##  2 2020-07-30 Rando… Geor… 13243   246     26       7087      3471.       3669.
    ##  3 2020-07-30 Terre… Geor… 13273   288     29       8859      3251.       3274.
    ##  4 2020-07-30 McKin… New … 35031  3977    219      72849      5459.       3006.
    ##  5 2020-07-30 Early  Geor… 13099   339     31      10348      3276.       2996.
    ##  6 2020-07-30 Nesho… Miss… 28099  1167     85      29376      3973.       2894.
    ##  7 2020-07-30 Empor… Virg… 51595   163     15       5381      3029.       2788.
    ##  8 2020-07-30 Essex  New … 34013 19684   2100     793555      2480.       2646.
    ##  9 2020-07-30 Galax… Virg… 51640   329     17       6638      4956.       2561.
    ## 10 2020-07-30 Lownd… Alab… 01085   559     26      10236      5461.       2540.
    ## # … with 3,208 more rows, and 1 more variable: county_state <chr>
…
